{
    "niv": {
        "branch": "master",
        "description": "Easy dependency management for Nix projects",
        "homepage": "https://github.com/nmattia/niv",
        "owner": "nmattia",
        "repo": "niv",
        "rev": "49157afd2298749b8a5062fd21079542a6b2de35",
        "sha256": "0q7ymfrcgagcsw6kr93kprag7k358qj8znyzyri53ci1mrsak5y1",
        "type": "tarball",
        "url": "https://github.com/nmattia/niv/archive/49157afd2298749b8a5062fd21079542a6b2de35.tar.gz",
        "url_template": "https://github.com/<owner>/<repo>/archive/<rev>.tar.gz"
    },
    "nixpkgs": {
        "branch": "nixos-19.09",
        "description": "A read-only mirror of NixOS/nixpkgs tracking the released channels. Send issues and PRs to",
        "homepage": "https://github.com/NixOS/nixpkgs",
        "owner": "NixOS",
        "repo": "nixpkgs-channels",
        "rev": "a0fedb11078bb52dded54e341a9e9bc0699bd2b1",
        "sha256": "072qd4q9wz8cnfn8sj1v9xrd08lpfcqkf3s09g5dm57hg4rnmh66",
        "type": "tarball",
        "url": "https://github.com/NixOS/nixpkgs-channels/archive/a0fedb11078bb52dded54e341a9e9bc0699bd2b1.tar.gz",
        "url_template": "https://github.com/<owner>/<repo>/archive/<rev>.tar.gz"
    },
    "nixpkgs-mozilla": {
        "branch": "master",
        "description": "mozilla related nixpkgs (extends nixos/nixpkgs repo)",
        "homepage": null,
        "owner": "mozilla",
        "repo": "nixpkgs-mozilla",
        "rev": "5300241b41243cb8962fad284f0004afad187dad",
        "sha256": "1h3g3817anicwa9705npssvkwhi876zijyyvv4c86qiklrkn5j9w",
        "type": "tarball",
        "url": "https://github.com/mozilla/nixpkgs-mozilla/archive/5300241b41243cb8962fad284f0004afad187dad.tar.gz",
        "url_template": "https://github.com/<owner>/<repo>/archive/<rev>.tar.gz"
    }
}
